%!PS-Adobe-3.0
%%Creator: cairo 1.12.16 (http://cairographics.org)
%%CreationDate: Sat Nov 18 05:20:22 2017
%%Pages: 1
%%DocumentData: Clean7Bit
%%LanguageLevel: 2
%%DocumentMedia: 169x102mm 480 290 0 () ()
%%BoundingBox: 56 114 352 214
%%EndComments
%%BeginProlog
/languagelevel where
{ pop languagelevel } { 1 } ifelse
2 lt { /Helvetica findfont 12 scalefont setfont 50 500 moveto
  (This print job requires a PostScript Language Level 2 printer.) show
  showpage quit } if
/q { gsave } bind def
/Q { grestore } bind def
/cm { 6 array astore concat } bind def
/w { setlinewidth } bind def
/J { setlinecap } bind def
/j { setlinejoin } bind def
/M { setmiterlimit } bind def
/d { setdash } bind def
/m { moveto } bind def
/l { lineto } bind def
/c { curveto } bind def
/h { closepath } bind def
/re { exch dup neg 3 1 roll 5 3 roll moveto 0 rlineto
      0 exch rlineto 0 rlineto closepath } bind def
/S { stroke } bind def
/f { fill } bind def
/f* { eofill } bind def
/n { newpath } bind def
/W { clip } bind def
/W* { eoclip } bind def
/BT { } bind def
/ET { } bind def
/pdfmark where { pop globaldict /?pdfmark /exec load put }
    { globaldict begin /?pdfmark /pop load def /pdfmark
    /cleartomark load def end } ifelse
/BDC { mark 3 1 roll /BDC pdfmark } bind def
/EMC { mark /EMC pdfmark } bind def
/cairo_store_point { /cairo_point_y exch def /cairo_point_x exch def } def
/Tj { show currentpoint cairo_store_point } bind def
/TJ {
  {
    dup
    type /stringtype eq
    { show } { -0.001 mul 0 cairo_font_matrix dtransform rmoveto } ifelse
  } forall
  currentpoint cairo_store_point
} bind def
/cairo_selectfont { cairo_font_matrix aload pop pop pop 0 0 6 array astore
    cairo_font exch selectfont cairo_point_x cairo_point_y moveto } bind def
/Tf { pop /cairo_font exch def /cairo_font_matrix where
      { pop cairo_selectfont } if } bind def
/Td { matrix translate cairo_font_matrix matrix concatmatrix dup
      /cairo_font_matrix exch def dup 4 get exch 5 get cairo_store_point
      /cairo_font where { pop cairo_selectfont } if } bind def
/Tm { 2 copy 8 2 roll 6 array astore /cairo_font_matrix exch def
      cairo_store_point /cairo_font where { pop cairo_selectfont } if } bind def
/g { setgray } bind def
/rg { setrgbcolor } bind def
/d1 { setcachedevice } bind def
%%EndProlog
%%Page: 1 1
%%BeginPageSetup
%%PageMedia: 169x102mm
%%PageBoundingBox: 56 114 352 214
%%EndPageSetup
q 56 114 296 100 rectclip q
0.901961 g
187.551 118.352 m 187.484 117.75 185.918 117.199 182.852 116.699 c 179.785
 116.199 175.535 115.766 170.102 115.398 c 164.668 115 158.367 114.699 151.199
 114.5 c 144.066 114.266 136.367 114.148 128.102 114.148 c 119.832 114.148
 112.117 114.266 104.949 114.5 c 97.785 114.699 91.484 115 86.051 115.398
 c 80.617 115.766 76.367 116.199 73.301 116.699 c 70.266 117.199 68.715 
117.75 68.648 118.352 c 68.715 118.918 70.266 119.449 73.301 119.949 c 76.367
 120.449 80.617 120.898 86.051 121.301 c 91.484 121.668 97.785 121.949 104.949
 122.148 c 112.117 122.383 119.832 122.5 128.102 122.5 c 136.367 122.5 144.082
 122.383 151.25 122.148 c 158.383 121.949 164.668 121.648 170.102 121.25
 c 175.535 120.883 179.785 120.449 182.852 119.949 c 185.918 119.449 187.484
 118.918 187.551 118.352 c f*
0.580392 0.729412 0.2 rg
112.301 162.699 m 114.633 163.465 116.965 164.301 119.301 165.199 c 119.332
 165.199 119.332 165.199 119.301 165.199 c 121.434 166.035 123.449 166.883
 125.352 167.75 c 125.285 167.918 125.215 168.066 125.148 168.199 c 124.215
 170.199 123.832 172.133 124 174 c 124.168 175.867 124.801 177.516 125.898
 178.949 c 127 180.352 128.5 181.352 130.398 181.949 c 130.5 181.949 130.582
 181.965 130.648 182 c 129.852 183.633 128.984 185.25 128.051 186.852 c 
126.984 188.684 125.852 190.398 124.648 192 c 124.551 191.965 124.418 191.934
 124.25 191.898 c 122.449 191.465 120.617 191.367 118.75 191.602 c 116.883
 191.832 115.168 192.367 113.602 193.199 c 112.035 194 110.801 195.035 109.898
 196.301 c 108.102 195.898 106.301 195.398 104.5 194.801 c 102.266 194.066
 100.133 193.25 98.102 192.352 c 98.699 190.984 98.816 189.551 98.449 188.051
 c 98.082 186.551 97.316 185.133 96.148 183.801 c 94.984 182.434 93.484 
181.301 91.648 180.398 c 92.215 178.535 92.918 176.617 93.75 174.648 c 94.516
 172.785 95.367 170.934 96.301 169.102 c 98.398 169.898 100.5 170.168 102.602
 169.898 c 104.699 169.633 106.602 168.898 108.301 167.699 c 110 166.5 111.316
 164.883 112.25 162.852 c 112.25 162.816 112.266 162.766 112.301 162.699
 c 127.25 165 m 125.184 164.035 123 163.102 120.699 162.199 c 120.699 162.168
 120.699 162.168 120.699 162.199 c 120.699 162.148 l 118.199 161.184 115.684
 160.301 113.148 159.5 c 113.383 157.699 113.215 155.949 112.648 154.25 
c 112.117 152.551 111.25 151.016 110.051 149.648 c 110.617 149.082 111.184
 148.551 111.75 148.051 c 114.215 145.785 116.617 144.016 118.949 142.75
 c 119.016 143.852 119.266 144.949 119.699 146.051 c 120.434 147.816 121.484
 149.234 122.852 150.301 c 124.215 151.332 125.75 151.984 127.449 152.25
 c 129.148 152.484 130.852 152.234 132.551 151.5 c 133.715 151 134.715 150.316
 135.551 149.449 c 136.285 152.016 136.617 154.965 136.551 158.301 c 136.551
 159.035 136.535 159.766 136.5 160.5 c 134.766 160.602 133.102 161.035 131.5
 161.801 c 129.934 162.566 128.516 163.633 127.25 165 c 96.852 194.199 m
 98.949 195.102 101.133 195.918 103.398 196.648 c 105.301 197.25 107.168
 197.766 109 198.199 c 108.699 199.332 108.801 200.383 109.301 201.352 c
 109.766 202.316 110.582 203.133 111.75 203.801 c 111.516 203.934 111.285
 204.066 111.051 204.199 c 108.816 205.332 106.668 206.117 104.602 206.551
 c 104.566 206.051 104.352 205.551 103.949 205.051 c 103.285 204.25 102.367
 203.582 101.199 203.051 c 100.035 202.484 98.75 202.082 97.352 201.852 
c 95.984 201.617 94.633 201.582 93.301 201.75 c 92.734 201.816 92.215 201.934
 91.75 202.102 c 90.949 200.832 90.352 199.316 89.949 197.551 c 89.883 197.215
 89.816 196.852 89.75 196.449 c 91.184 196.551 92.516 196.398 93.75 196 
c 94.984 195.602 96.016 195 96.852 194.199 c 129.699 197.801 m 129.801 196.867
 129.617 195.984 129.148 195.148 c 128.684 194.316 127.965 193.602 127 193
 c 128.266 191.301 129.484 189.484 130.648 187.551 c 130.684 187.551 130.684
 187.551 130.648 187.551 c 131.684 185.852 132.633 184.117 133.5 182.352
 c 135.102 182.316 136.684 181.965 138.25 181.301 c 139.785 180.633 141.168
 179.699 142.398 178.5 c 142.734 178.801 143.051 179.117 143.352 179.449
 c 144.949 181.148 146.016 182.816 146.551 184.449 c 145.582 184.617 144.551
 184.984 143.449 185.551 c 142.016 186.285 140.801 187.168 139.801 188.199
 c 138.801 189.266 138.082 190.352 137.648 191.449 c 137.215 192.582 137.148
 193.633 137.449 194.602 c 137.617 195.102 137.883 195.516 138.25 195.852
 c 136.383 196.551 134.25 197.102 131.852 197.5 c 131.148 197.633 130.434
 197.734 129.699 197.801 c 88.199 158 m 88.301 159.867 88.801 161.617 89.699
 163.25 c 90.566 164.918 91.785 166.332 93.352 167.5 c 92.383 169.434 91.516
 171.383 90.75 173.352 c 89.918 175.383 89.215 177.367 88.648 179.301 c 
86.949 178.898 85.332 178.801 83.801 179 c 82.301 179.234 81 179.75 79.898
 180.551 c 79.566 180.25 79.25 179.949 78.949 179.648 c 76.785 177.383 75.082
 175.184 73.852 173.051 c 74.551 173.051 75.25 172.949 75.949 172.75 c 77.352
 172.285 78.434 171.484 79.199 170.352 c 80 169.215 80.449 167.867 80.551
 166.301 c 80.648 164.766 80.367 163.184 79.699 161.551 c 79.266 160.582
 78.75 159.715 78.148 158.949 c 80.516 158.285 83.383 157.949 86.75 157.949
 c 87.215 157.949 87.699 157.965 88.199 158 c 113.648 187.551 m 112.352 
187.949 111.051 188.082 109.75 187.949 c 108.484 187.785 107.316 187.367
 106.25 186.699 c 105.215 186.066 104.418 185.215 103.852 184.148 c 103.285
 183.016 103.082 181.883 103.25 180.75 c 103.449 179.582 103.949 178.535
 104.75 177.602 c 105.551 176.699 106.617 176 107.949 175.5 c 109.316 175.035
 110.684 174.883 112.051 175.051 c 113.383 175.184 114.582 175.617 115.648
 176.352 c 116.715 177.051 117.516 177.984 118.051 179.148 c 118.75 180.883
 118.684 182.535 117.852 184.102 c 117.016 185.668 115.617 186.816 113.648
 187.551 c 106.852 213.898 m 105.684 213.832 104.734 213.633 104 213.301
 c 103.266 212.965 102.918 212.602 102.949 212.199 c 103.082 211.766 103.617
 211.434 104.551 211.199 c 105.484 210.965 106.602 210.898 107.898 211 c
 109.168 211.102 110.148 211.316 110.852 211.648 c 111.582 211.984 111.867
 212.367 111.699 212.801 c 111.465 213.199 110.898 213.5 110 213.699 c 109.102
 213.934 108.051 214 106.852 213.898 c 80.051 205.949 m 78.984 205.352 78.234
 204.734 77.801 204.102 c 77.398 203.465 77.398 202.965 77.801 202.602 c
 78.301 202.234 79.082 202.148 80.148 202.352 c 81.215 202.551 82.332 202.965
 83.5 203.602 c 84.602 204.266 85.352 204.918 85.75 205.551 c 86.117 206.184
 86.051 206.668 85.551 207 c 85.016 207.301 84.234 207.352 83.199 207.148
 c 82.168 206.949 81.117 206.551 80.051 205.949 c 56.301 171.551 m 56.234
 170.285 56.516 169.352 57.148 168.75 c 57.816 168.117 58.715 167.984 59.852
 168.352 c 61.016 168.816 62.016 169.648 62.852 170.852 c 63.684 172.016
 64.148 173.285 64.25 174.648 c 64.316 175.949 63.984 176.867 63.25 177.398
 c 62.551 177.965 61.648 178.016 60.551 177.551 c 59.449 177.082 58.516 
176.285 57.75 175.148 c 56.949 174.016 56.465 172.816 56.301 171.551 c 64.199
 139.898 m 65.066 138.566 66.148 137.801 67.449 137.602 c 68.785 137.367
 70.016 137.75 71.148 138.75 c 71.918 139.449 72.465 140.301 72.801 141.301
 c 73.133 142.266 73.25 143.285 73.148 144.352 c 73.051 145.418 72.699 146.398
 72.102 147.301 c 71.199 148.602 70.082 149.332 68.75 149.5 c 67.449 149.633
 66.234 149.184 65.102 148.148 c 64.066 147.082 63.465 145.766 63.301 144.199
 c 63.133 142.668 63.434 141.234 64.199 139.898 c 116.449 117 m 118.215 
117.301 119.617 118.117 120.648 119.449 c 121.684 120.75 122.117 122.266
 121.949 124 c 121.715 125.766 120.918 127.148 119.551 128.148 c 118.215
 129.148 116.633 129.535 114.801 129.301 c 113 129 111.566 128.168 110.5
 126.801 c 109.465 125.465 109.051 123.918 109.25 122.148 c 109.551 120.449
 110.383 119.117 111.75 118.148 c 113.082 117.184 114.648 116.801 116.449
 117 c 152.051 133.852 m 153.148 134.949 153.801 136.285 154 137.852 c 154.168
 139.418 153.852 140.867 153.051 142.199 c 152.184 143.535 151.066 144.301
 149.699 144.5 c 148.367 144.699 147.102 144.301 145.898 143.301 c 145.102
 142.566 144.516 141.699 144.148 140.699 c 143.816 139.699 143.699 138.668
 143.801 137.602 c 143.898 136.535 144.25 135.551 144.852 134.648 c 145.785
 133.352 146.918 132.633 148.25 132.5 c 149.617 132.332 150.883 132.785 
152.051 133.852 c 162.602 178.852 m 162.133 180.051 161.434 181.102 160.5
 182 c 159.566 182.898 158.617 183.449 157.648 183.648 c 156.648 183.785
 155.965 183.484 155.602 182.75 c 155.199 182.051 155.199 181.066 155.602
 179.801 c 156.066 178.465 156.801 177.332 157.801 176.398 c 158.766 175.465
 159.766 174.934 160.801 174.801 c 161.734 174.734 162.367 175.082 162.699
 175.852 c 163.035 176.617 163 177.617 162.602 178.852 c 145.801 202.051
 m 144.867 202.785 143.883 203.352 142.852 203.75 c 141.785 204.148 140.898
 204.285 140.199 204.148 c 139.5 203.984 139.234 203.582 139.398 202.949
 c 139.566 202.285 140.117 201.551 141.051 200.75 c 142.051 199.949 143.102
 199.352 144.199 198.949 c 145.301 198.551 146.199 198.449 146.898 198.648
 c 147.5 198.883 147.699 199.316 147.5 199.949 c 147.301 200.582 146.734
 201.285 145.801 202.051 c 89 152.949 m 88.766 153.516 88.582 154.102 88.449
 154.699 c 87.816 154.668 87.184 154.648 86.551 154.648 c 82.051 154.648
 78.352 155.266 75.449 156.5 c 74.316 155.832 73.148 155.418 71.949 155.25
 c 70.75 155.082 69.602 155.234 68.5 155.699 c 67.234 156.266 66.25 157.133
 65.551 158.301 c 64.852 159.465 64.484 160.785 64.449 162.25 c 64.383 163.75
 64.684 165.266 65.352 166.801 c 65.949 168.102 66.715 169.234 67.648 170.199
 c 68.617 171.168 69.668 171.883 70.801 172.352 c 72.168 175.25 74.301 178.168
 77.199 181.102 c 77.566 181.5 77.949 181.867 78.352 182.199 c 78.051 182.668
 77.816 183.168 77.648 183.699 c 77.148 185.465 77.332 187.266 78.199 189.102
 c 76.102 189.5 74.066 189.816 72.102 190.051 c 71.301 189.148 70.352 188.367
 69.25 187.699 c 67.715 186.832 66.418 186.465 65.352 186.602 c 64.285 186.699
 63.684 187.285 63.551 188.352 c 63.484 189.352 63.883 190.449 64.75 191.648
 c 65.617 192.883 66.734 193.934 68.102 194.801 c 69.535 195.633 70.801 
196.035 71.898 196 c 73 195.965 73.668 195.484 73.898 194.551 c 74.066 193.852
 73.934 193.051 73.5 192.148 c 75.465 191.918 77.5 191.633 79.602 191.301
 c 80.934 192.934 82.699 194.25 84.898 195.25 c 85.633 195.551 86.352 195.801
 87.051 196 c 87.117 196.434 87.199 196.852 87.301 197.25 c 87.867 199.551
 88.785 201.5 90.051 203.102 c 89.582 203.602 89.383 204.148 89.449 204.75
 c 89.516 205.383 89.867 206.016 90.5 206.648 c 91.168 207.316 92.051 207.898
 93.148 208.398 c 94.25 208.898 95.434 209.25 96.699 209.449 c 97.934 209.684
 99.148 209.75 100.352 209.648 c 102.285 209.418 103.582 208.867 104.25 
208 c 107.016 207.668 109.883 206.75 112.852 205.25 c 113.184 205.082 113.516
 204.898 113.852 204.699 c 114.215 204.832 114.582 204.934 114.949 205 c
 117.148 205.398 119.352 205.316 121.551 204.75 c 122.25 205.949 122.934
 207.035 123.602 208 c 122.465 208.398 121.582 208.883 120.949 209.449 c
 120.25 210.148 120.102 210.734 120.5 211.199 c 120.898 211.668 121.75 211.918
 123.051 211.949 c 124.352 211.984 125.699 211.785 127.102 211.352 c 128.465
 210.949 129.566 210.434 130.398 209.801 c 131.234 209.102 131.516 208.5
 131.25 208 c 130.949 207.465 130.148 207.168 128.852 207.102 c 127.949 
207.035 127 207.102 126 207.301 c 125.398 206.266 124.75 205.148 124.051
 203.949 c 125.852 203.184 127.285 202.133 128.352 200.801 c 128.684 200.398
 128.949 200.016 129.148 199.648 c 129.949 199.551 130.75 199.434 131.551
 199.301 c 134.816 198.734 137.699 197.883 140.199 196.75 c 140.965 196.883
 141.852 196.867 142.852 196.699 c 143.816 196.5 144.816 196.117 145.852
 195.551 c 147.75 194.516 149.25 193.199 150.352 191.602 c 151.449 190.035
 151.918 188.551 151.75 187.148 c 151.484 185.785 150.668 184.918 149.301
 184.551 c 148.965 182.184 147.734 179.801 145.602 177.398 c 145.199 176.965
 144.785 176.535 144.352 176.102 c 144.551 175.766 144.75 175.418 144.949
 175.051 c 145.551 173.852 145.949 172.648 146.148 171.449 c 146.352 170.25
 146.352 169.082 146.148 167.949 c 148.648 166.648 151.082 165.316 153.449
 163.949 c 153.918 165.117 154.699 165.918 155.801 166.352 c 157.102 166.816
 158.434 166.617 159.801 165.75 c 161.133 164.918 162.184 163.602 162.949
 161.801 c 163.617 160 163.785 158.301 163.449 156.699 c 163.082 155.066
 162.301 153.918 161.102 153.25 c 159.734 152.617 158.352 152.699 156.949
 153.5 c 155.516 154.332 154.398 155.699 153.602 157.602 c 153.102 158.832
 152.867 160.051 152.898 161.25 c 150.434 162.617 147.883 163.984 145.25
 165.352 c 144.316 163.484 142.801 162.102 140.699 161.199 c 140.301 161.066
 139.898 160.949 139.5 160.852 c 139.566 159.918 139.617 159 139.648 158.102
 c 139.715 153.434 139.102 149.418 137.801 146.051 c 138.266 144.852 138.5
 143.602 138.5 142.301 c 138.535 141 138.301 139.715 137.801 138.449 c 137.102
 136.715 136.082 135.316 134.75 134.25 c 133.418 133.184 131.918 132.5 130.25
 132.199 c 128.582 131.934 126.898 132.117 125.199 132.75 c 123.832 133.316
 122.684 134.102 121.75 135.102 c 120.785 136.133 120.066 137.301 119.602
 138.602 c 116.234 140 112.832 142.285 109.398 145.449 c 108.734 146.082
 108.066 146.734 107.398 147.398 c 106.801 146.965 106.133 146.617 105.398
 146.352 c 104.066 145.785 102.699 145.449 101.301 145.352 c 99.934 145.25
 98.582 145.367 97.25 145.699 c 96.016 142.566 94.785 139.434 93.551 136.301
 c 94.816 135.434 95.785 134.25 96.449 132.75 c 97.016 131.352 97.234 129.965
 97.102 128.602 c 96.934 127.199 96.449 125.965 95.648 124.898 c 94.852 
123.801 93.785 122.984 92.449 122.449 c 91.148 121.949 89.832 121.816 88.5
 122.051 c 87.199 122.285 86 122.816 84.898 123.648 c 83.832 124.484 83 
125.566 82.398 126.898 c 81.832 128.266 81.617 129.633 81.75 131 c 81.883
 132.332 82.316 133.551 83.051 134.648 c 83.816 135.75 84.832 136.582 86.102
 137.148 c 87.535 137.75 88.984 137.918 90.449 137.648 c 91.648 140.75 92.883
 143.852 94.148 146.949 c 92.984 147.617 91.965 148.449 91.102 149.449 c
 90.199 150.484 89.5 151.648 89 152.949 c f*
0.992157 0.768627 0.101961 rg
206.574 157.402 m 191.324 126.34 l 191.082 125.859 190.723 125.473 190.246
 125.184 c 189.777 124.895 189.262 124.746 188.699 124.746 c 188.137 124.746
 187.621 124.895 187.152 125.184 c 186.684 125.473 186.316 125.859 186.059
 126.34 c 170.84 157.402 l 177.371 157.402 l 188.699 134.199 l 200.059 157.402
 l h
234.066 133.402 m 234.066 132.391 233.934 131.484 233.676 130.684 c 233.426
 129.891 233.09 129.188 232.676 128.574 c 232.258 127.969 231.77 127.453
 231.207 127.027 c 230.652 126.598 230.074 126.25 229.473 125.98 c 228.867
 125.707 228.254 125.512 227.629 125.387 c 227.004 125.262 226.414 125.199
 225.863 125.199 c 215.332 125.199 l 214.52 125.199 213.633 125.34 212.676
 125.621 c 211.715 125.91 210.832 126.379 210.02 127.027 c 209.207 127.684
 208.523 128.531 207.973 129.574 c 207.43 130.613 207.16 131.891 207.16 
133.402 c 207.16 141.309 l 207.16 142.797 207.43 144.062 207.973 145.105
 c 208.523 146.145 209.207 146.988 210.02 147.637 c 210.832 148.293 211.715
 148.762 212.676 149.043 c 213.633 149.332 214.52 149.48 215.332 149.48 
c 225.863 149.48 l 227.363 149.48 228.633 149.207 229.676 148.668 c 230.727
 148.125 231.574 147.449 232.223 146.637 c 232.867 145.824 233.336 144.938
 233.629 143.98 c 233.918 143.02 234.066 142.129 234.066 141.309 c h
228.223 141.262 m 228.223 142.062 228.02 142.656 227.613 143.043 c 227.215
 143.438 226.633 143.637 225.863 143.637 c 215.379 143.637 l 214.598 143.637
 214.004 143.438 213.598 143.043 c 213.199 142.645 213.004 142.066 213.004
 141.309 c 213.004 133.402 l 213.004 132.629 213.199 132.043 213.598 131.637
 c 214.004 131.238 214.598 131.043 215.379 131.043 c 225.863 131.043 l 226.652
 131.043 227.242 131.238 227.629 131.637 c 228.023 132.043 228.223 132.629
 228.223 133.402 c h
245.027 154.465 m 239.184 154.465 l 239.184 159.746 l 245.027 159.746 l
 h
245.027 125.199 m 239.184 125.199 l 239.184 149.48 l 245.027 149.48 l h
277.371 133.402 m 277.371 132.391 277.238 131.484 276.98 130.684 c 276.73
 129.891 276.395 129.188 275.98 128.574 c 275.562 127.969 275.074 127.453
 274.512 127.027 c 273.957 126.598 273.379 126.25 272.777 125.98 c 272.172
 125.707 271.562 125.512 270.949 125.387 c 270.332 125.262 269.75 125.199
 269.199 125.199 c 258.652 125.199 l 258.652 131.043 l 269.199 131.043 l
 269.969 131.043 270.547 131.238 270.934 131.637 c 271.328 132.043 271.527
 132.629 271.527 133.402 c 271.527 141.262 l 271.527 142.062 271.328 142.656
 270.934 143.043 c 270.535 143.438 269.957 143.637 269.199 143.637 c 258.699
 143.637 l 257.906 143.637 257.309 143.438 256.902 143.043 c 256.504 142.645
 256.309 142.066 256.309 141.309 c 256.309 117.605 l 250.465 117.605 l 250.465
 141.309 l 250.465 142.309 250.59 143.203 250.84 143.996 c 251.098 144.785
 251.441 145.484 251.871 146.09 c 252.297 146.703 252.785 147.223 253.34
 147.652 c 253.891 148.078 254.469 148.426 255.074 148.699 c 255.676 148.969
 256.293 149.168 256.918 149.293 c 257.543 149.418 258.121 149.48 258.652
 149.48 c 269.199 149.48 l 270.199 149.48 271.094 149.348 271.887 149.09
 c 272.676 148.84 273.375 148.504 273.98 148.09 c 274.594 147.672 275.113
 147.184 275.543 146.621 c 275.969 146.066 276.312 145.488 276.574 144.887
 c 276.844 144.281 277.043 143.672 277.168 143.059 c 277.301 142.441 277.371
 141.859 277.371 141.309 c h
297.77 145.902 m 307.598 157.402 l 315.582 157.402 l 301.723 141.262 l 
315.488 125.199 l 307.551 125.199 l 297.77 136.605 l 288.02 125.199 l 280.066
 125.199 l 293.816 141.262 l 280.02 157.402 l 287.926 157.402 l h
351.352 143.934 m 351.352 142.598 351.184 141.406 350.852 140.355 c 350.527
 139.312 350.086 138.391 349.523 137.59 c 348.961 136.785 348.309 136.098
 347.57 135.527 c 346.84 134.965 346.074 134.5 345.273 134.137 c 344.48 
133.781 343.672 133.52 342.852 133.355 c 342.039 133.188 341.273 133.105
 340.555 133.105 c 327.352 133.105 l 327.352 138.949 l 340.555 138.949 l
 341.305 139.012 341.98 139.16 342.586 139.402 c 343.188 139.652 343.711
 139.984 344.148 140.402 c 344.586 140.816 344.922 141.324 345.164 141.918
 c 345.402 142.512 345.523 143.184 345.523 143.934 c 345.523 146.59 l 345.438
 147.316 345.277 147.988 345.039 148.605 c 344.797 149.219 344.469 149.738
 344.055 150.168 c 343.648 150.605 343.152 150.949 342.57 151.199 c 341.984
 151.449 341.312 151.574 340.555 151.574 c 327.383 151.574 l 326.609 151.574
 326.023 151.371 325.617 150.965 c 325.211 150.559 325.008 149.973 325.008
 149.215 c 325.008 125.199 l 319.164 125.199 l 319.164 149.215 l 319.164
 150.703 319.434 151.973 319.977 153.027 c 320.527 154.078 321.211 154.922
 322.023 155.559 c 322.844 156.203 323.734 156.672 324.695 156.965 c 325.652
 157.254 326.539 157.402 327.352 157.402 c 340.555 157.402 l 341.867 157.402
 343.047 157.234 344.102 156.902 c 345.152 156.566 346.074 156.121 346.867
 155.559 c 347.668 154.996 348.352 154.344 348.914 153.605 c 349.477 152.875
 349.938 152.109 350.305 151.309 c 350.68 150.504 350.945 149.699 351.102
 148.887 c 351.266 148.074 351.352 147.309 351.352 146.59 c h
f
Q Q
showpage
%%Trailer
%%EOF
